{
  "$schema": "https://docs.renovatebot.com/renovate-schema.json",
  "extends": [
    "config:base"
  ],
  "assignees": ["isil.dogano"],
  "packageRules": [
    {
      "fileMatch": ["docker-compose.yml"],
      "matchPackageNames": ["docker.io/postgres**"],
      "enabled": "false"
    }
  ]
}
